<?xml version="1.0" encoding="UTF-8"?>
<CustomTab xmlns="http://soap.sforce.com/2006/04/metadata">
    <label>Accounts Specific Parameters</label>
    <mobileReady>false</mobileReady>
    <motif>Custom87: Safe</motif>
    <page>Parameter_Attribute</page>
</CustomTab>
