<?xml version="1.0" encoding="UTF-8"?>
<CustomTab xmlns="http://soap.sforce.com/2006/04/metadata">
    <label>Business Rule Grid</label>
    <mobileReady>false</mobileReady>
    <motif>Custom9: Lightning</motif>
    <page>business_rule_grid</page>
</CustomTab>
