<?xml version="1.0" encoding="UTF-8"?>
<CustomTab xmlns="http://soap.sforce.com/2006/04/metadata">
    <label>Business Rules</label>
    <mobileReady>false</mobileReady>
    <motif>Custom9: Lightning</motif>
    <page>Business_Rule_list</page>
</CustomTab>
