<?xml version="1.0" encoding="UTF-8"?>
<CustomTab xmlns="http://soap.sforce.com/2006/04/metadata">
    <label>Call Capacity</label>
    <mobileReady>false</mobileReady>
    <motif>Custom78: Map</motif>
    <page>Call_Capacity</page>
</CustomTab>
