<?xml version="1.0" encoding="UTF-8"?>
<CustomTab xmlns="http://soap.sforce.com/2006/04/metadata">
    <label>Call Plan</label>
    <mobileReady>false</mobileReady>
    <motif>Custom5: Leaf</motif>
    <page>CallPlan3</page>
</CustomTab>
