<?xml version="1.0" encoding="UTF-8"?>
<CustomTab xmlns="http://soap.sforce.com/2006/04/metadata">
    <label>Customer Management</label>
    <mobileReady>false</mobileReady>
    <motif>Custom29: PDA</motif>
    <page>Direct_Load</page>
</CustomTab>
