<?xml version="1.0" encoding="UTF-8"?>
<CustomTab xmlns="http://soap.sforce.com/2006/04/metadata">
    <label>Segment Simulation</label>
    <mobileReady>false</mobileReady>
    <motif>Custom55: Books</motif>
    <page>Simulation2</page>
</CustomTab>
