<?xml version="1.0" encoding="UTF-8"?>
<CustomTab xmlns="http://soap.sforce.com/2006/04/metadata">
    <customObject>true</customObject>
    <icon>AxtriaSalesIQTM__Axtria_Logo/AxtriaSalesIQTM__Axtria_Logo.png</icon>
    <mobileReady>false</mobileReady>
    <motif>Custom252: TV Widescreen</motif>
</CustomTab>
