<?xml version="1.0" encoding="UTF-8"?>
<CustomTab xmlns="http://soap.sforce.com/2006/04/metadata">
    <auraComponent>RosterWorkbench</auraComponent>
    <label>Workbench</label>
    <mobileReady>false</mobileReady>
    <motif>Custom21: Computer</motif>
</CustomTab>
